[
  {
    "dataAbertura": "2020-02-10",
    "dataAberturaMinima": "2020-02-10",
    "dataAberturaMaxima": "2020-02-10",
    "dataPublicacao": "2020-02-10",
    "dataReferencia": "2020-02-10",
    "dataResultadoCompra": "2020-02-10",
    "id": 0,
    "instrumentoLegal": {
      "descricao": "string"
    },
    "licitacao": {
      "contatoResponsavel": "string",
      "numero": "string",
      "numeroProcesso": "string",
      "objeto": "string"
    },
    "modalidadeLicitacao": {
      "descricao": "string"
    },
    "municipio": {
      "codigoIBGE": "string",
      "nomeIBGE": "string",
      "nomeIBGEsemAcento": "string",
      "pais": "string",
      "uf": {
        "nome": "string",
        "sigla": "string"
      }
    },
    "situacaoCompra": {
      "codigo": 0,
      "descricao": "string"
    },
    "unidadeGestora": {
      "codigo": "string",
      "descricaoPoder": "string",
      "existeFatoDespesa": true,
      "existeFatoReceita": true,
      "nome": "string",
      "nomeSemAcento": "string",
      "orgaoMaximo": {
        "codigo": "string",
        "nome": "string",
        "sigla": "string"
      },
      "orgaoVinculado": {
        "cnpj": "string",
        "codigoSIAFI": "string",
        "naturezaJuridica": {
          "codigo": "string",
          "codigoTipo": "string",
          "descricao": "string",
          "descricaoTipo": "string"
        },
        "nome": "string",
        "sigla": "string"
      }
    },
    "valor": 0
  }
]