ExperimentName,ExperimentRun,Var,Value
RDF_CRAWL,0,addCnpjSecs,0.018
RDF_CRAWL,0,tdbloaderSecs,55.065
RDF_CRAWL,0,jsonParseSecs,90.181
RDF_CRAWL,1,addCnpjSecs,0.016
RDF_CRAWL,1,tdbloaderSecs,55.865
RDF_CRAWL,1,jsonParseSecs,91.177
RDF_CRAWL,2,addCnpjSecs,0.017
RDF_CRAWL,2,tdbloaderSecs,53.834
RDF_CRAWL,2,jsonParseSecs,90.088
RDF_CRAWL,3,addCnpjSecs,0.014
RDF_CRAWL,3,tdbloaderSecs,55.745
RDF_CRAWL,3,jsonParseSecs,90.945
RDF_CRAWL,4,addCnpjSecs,0.011
RDF_CRAWL,4,tdbloaderSecs,53.432
RDF_CRAWL,4,jsonParseSecs,91.082
